{
  "docs": [
    {
      "rating": {
        "kp": 6.161,
        "imdb": 6.3
      },
      "name": "Ублюдок",
      "year": 2014,
      "poster": {
        "url": "https://st.kp.yandex.net/images/film_big/710372.jpg"
      }
    },
    {
      "rating": {
        "kp": 6.562,
        "imdb": 6.4
      },
      "name": "Ублюдок 2",
      "year": 2017,
      "poster": {
        "url": "https://st.kp.yandex.net/images/film_big/839520.jpg"
      }
    },
    {
      "name": "Я достану тебя, ублюдок",
      "rating": {
        "kp": 6.129,
        "imdb": 6.6
      },
      "year": 1988,
      "poster": {
        "url": "https://st.kp.yandex.net/images/film_big/13086.jpg"
      }
    },
    {
      "name": "Ублюдок!! Тёмный бог разрушения",
      "poster": {
        "url": "https://st.kp.yandex.net/images/film_big/4854731.jpg"
      },
      "rating": {
        "kp": 6.182,
        "imdb": 6.5
      },
      "year": 2022
    },
    {
      "rating": {
        "kp": 6.879,
        "imdb": 7.3
      },
      "name": "Ублюдок из Каролины",
      "year": 1996,
      "poster": {
        "url": "https://st.kp.yandex.net/images/film_big/1951.jpg"
      }
    },
    {
      "rating": {
        "kp": 6.312,
        "imdb": 6.9
      },
      "name": "Ублюдок!! Сокрушитель тьмы",
      "year": 1992,
      "poster": {
        "url": "https://st.kp.yandex.net/images/film_big/58684.jpg"
      }
    },
    {
      "rating": {
        "kp": 5.78,
        "imdb": 5.3
      },
      "name": "Этакий крутой ублюдок",
      "year": 1996,
      "poster": {
        "url": "https://st.kp.yandex.net/images/film_big/12134.jpg"
      }
    },
    {
      "rating": {
        "kp": 7.034,
        "imdb": 6.6
      },
      "name": "Фоги — настоящий ублюдок",
      "year": 1998,
      "poster": {
        "url": "https://st.kp.yandex.net/images/film_big/56327.jpg"
      }
    },
    {
      "rating": {
        "kp": 3.837,
        "imdb": 4.5
      },
      "name": "Ублюдок",
      "year": 2015,
      "poster": {
        "url": "https://st.kp.yandex.net/images/film_big/879316.jpg"
      }
    },
    {
      "rating": {
        "kp": 5.867,
        "imdb": 6.1
      },
      "name": "Ублюдок Джанго",
      "year": 1969,
      "poster": {
        "url": "https://st.kp.yandex.net/images/film_big/79817.jpg"
      }
    }
  ],
  "total": 24,
  "limit": 10,
  "page": 1,
  "pages": 3
}